(kicad_pcb (version 20171130) (host pcbnew "(5.1.10-1-10_14)")

  (general
    (thickness 1.6)
    (drawings 4)
    (tracks 55)
    (zones 0)
    (modules 11)
    (nets 10)
  )

  (page A4)
  (layers
    (0 Top signal)
    (31 Bottom signal)
    (32 B.Adhes user)
    (33 F.Adhes user)
    (34 B.Paste user)
    (35 F.Paste user)
    (36 B.SilkS user)
    (37 F.SilkS user)
    (38 B.Mask user)
    (39 F.Mask user)
    (40 Dwgs.User user)
    (41 Cmts.User user)
    (42 Eco1.User user)
    (43 Eco2.User user)
    (44 Edge.Cuts user)
    (45 Margin user)
    (46 B.CrtYd user)
    (47 F.CrtYd user)
    (48 B.Fab user)
    (49 F.Fab user)
  )

  (setup
    (last_trace_width 0.4064)
    (user_trace_width 0.4064)
    (trace_clearance 0.4)
    (zone_clearance 0.508)
    (zone_45_only no)
    (trace_min 0.4)
    (via_size 0.8)
    (via_drill 0.4)
    (via_min_size 0.4)
    (via_min_drill 0.3)
    (uvia_size 0.4)
    (uvia_drill 0.2)
    (uvias_allowed no)
    (uvia_min_size 0.4)
    (uvia_min_drill 0.1)
    (edge_width 0.05)
    (segment_width 0.2)
    (pcb_text_width 0.3)
    (pcb_text_size 1.5 1.5)
    (mod_edge_width 0.12)
    (mod_text_size 1 1)
    (mod_text_width 0.15)
    (pad_size 1.524 1.524)
    (pad_drill 0.762)
    (pad_to_mask_clearance 0)
    (aux_axis_origin 0 0)
    (visible_elements FFFFFF7F)
    (pcbplotparams
      (layerselection 0x010fc_ffffffff)
      (usegerberextensions false)
      (usegerberattributes true)
      (usegerberadvancedattributes true)
      (creategerberjobfile true)
      (excludeedgelayer true)
      (linewidth 0.100000)
      (plotframeref false)
      (viasonmask false)
      (mode 1)
      (useauxorigin false)
      (hpglpennumber 1)
      (hpglpenspeed 20)
      (hpglpendiameter 15.000000)
      (psnegative false)
      (psa4output false)
      (plotreference true)
      (plotvalue true)
      (plotinvisibletext false)
      (padsonsilk false)
      (subtractmaskfromsilk false)
      (outputformat 1)
      (mirror false)
      (drillshape 1)
      (scaleselection 1)
      (outputdirectory ""))
  )

  (net 0 "")
  (net 1 VCC)
  (net 2 GND)
  (net 3 /MOSI)
  (net 4 /MISO)
  (net 5 /SCK)
  (net 6 /ADC2)
  (net 7 /ADC3)
  (net 8 /RST)
  (net 9 "Net-(LED1-Pad1)")

  (net_class Default "This is the default net class."
    (clearance 0.4)
    (trace_width 0.4064)
    (via_dia 0.8)
    (via_drill 0.4)
    (uvia_dia 0.4)
    (uvia_drill 0.2)
    (diff_pair_width 0.4)
    (diff_pair_gap 0.4)
    (add_net /ADC2)
    (add_net /ADC3)
    (add_net /MISO)
    (add_net /MOSI)
    (add_net /RST)
    (add_net /SCK)
    (add_net GND)
    (add_net "Net-(LED1-Pad1)")
    (add_net VCC)
  )

  (module hello:SOIC8 (layer Top) (tedit 0) (tstamp 615DB32D)
    (at 122.809 113.538)
    (descr "<B>Wide Plastic Gull Wing Small Outline Package</B>")
    (path /843311E9)
    (fp_text reference UNK1 (at -2.8575 2.159 90) (layer F.SilkS)
      (effects (font (size 1.2065 1.2065) (thickness 0.127)) (justify left bottom))
    )
    (fp_text value ATTINY45SI (at 4.064 2.159 90) (layer F.Fab)
      (effects (font (size 1.2065 1.2065) (thickness 0.127)) (justify left bottom))
    )
    (fp_line (start 2.36 2.5) (end -2.34 2.5) (layer F.Fab) (width 0.1524))
    (fp_line (start -2.34 -2.5) (end 2.36 -2.5) (layer F.Fab) (width 0.1524))
    (fp_line (start -2.21 -2.5) (end -2.34 -2.5) (layer F.SilkS) (width 0.1524))
    (fp_line (start -1.59 -2.5) (end -0.95 -2.5) (layer F.SilkS) (width 0.1524))
    (fp_line (start -0.32 -2.5) (end 0.32 -2.5) (layer F.SilkS) (width 0.1524))
    (fp_line (start 0.95 -2.5) (end 1.59 -2.5) (layer F.SilkS) (width 0.1524))
    (fp_line (start 2.21 -2.5) (end 2.36 -2.5) (layer F.SilkS) (width 0.1524))
    (fp_line (start 2.2 2.5) (end 2.33 2.5) (layer F.SilkS) (width 0.1524))
    (fp_line (start 1.59 2.5) (end 0.94 2.5) (layer F.SilkS) (width 0.1524))
    (fp_line (start 0.32 2.5) (end -0.33 2.5) (layer F.SilkS) (width 0.1524))
    (fp_line (start -0.95 2.5) (end -1.59 2.5) (layer F.SilkS) (width 0.1524))
    (fp_line (start -2.21 2.5) (end -2.34 2.5) (layer F.SilkS) (width 0.1524))
    (fp_line (start -2.6 -2.25) (end -2.6 2.24) (layer F.SilkS) (width 0.1524))
    (fp_line (start 2.6 2.25) (end 2.6 -2.25) (layer F.SilkS) (width 0.1524))
    (fp_circle (center -1.42 1.115) (end -0.92 1.115) (layer F.SilkS) (width 0.0508))
    (fp_poly (pts (xy -2.08 -2.5) (xy -1.73 -2.5) (xy -1.73 -3.4) (xy -2.08 -3.4)) (layer F.Fab) (width 0))
    (fp_poly (pts (xy -0.81 -2.5) (xy -0.46 -2.5) (xy -0.46 -3.4) (xy -0.81 -3.4)) (layer F.Fab) (width 0))
    (fp_poly (pts (xy 0.46 -2.5) (xy 0.81 -2.5) (xy 0.81 -3.4) (xy 0.46 -3.4)) (layer F.Fab) (width 0))
    (fp_poly (pts (xy 1.73 -2.5) (xy 2.08 -2.5) (xy 2.08 -3.4) (xy 1.73 -3.4)) (layer F.Fab) (width 0))
    (fp_poly (pts (xy 1.72 3.4) (xy 2.07 3.4) (xy 2.07 2.5) (xy 1.72 2.5)) (layer F.Fab) (width 0))
    (fp_poly (pts (xy 0.45 3.4) (xy 0.8 3.4) (xy 0.8 2.5) (xy 0.45 2.5)) (layer F.Fab) (width 0))
    (fp_poly (pts (xy -0.82 3.4) (xy -0.47 3.4) (xy -0.47 2.5) (xy -0.82 2.5)) (layer F.Fab) (width 0))
    (fp_poly (pts (xy -2.08 3.4) (xy -1.73 3.4) (xy -1.73 2.5) (xy -2.08 2.5)) (layer F.Fab) (width 0))
    (fp_arc (start -2.35 2.25) (end -2.6 2.25) (angle -90) (layer F.SilkS) (width 0.1524))
    (fp_arc (start 2.35 2.25) (end 2.35 2.5) (angle -90) (layer F.SilkS) (width 0.1524))
    (fp_arc (start 2.35 -2.25) (end 2.35 -2.5) (angle 90) (layer F.SilkS) (width 0.1524))
    (fp_arc (start -2.35 -2.25) (end -2.6 -2.25) (angle 90) (layer F.SilkS) (width 0.1524))
    (pad 5 smd rect (at 1.905 -3.154) (size 0.5 2.2) (layers Top F.Paste F.Mask)
      (net 3 /MOSI) (solder_mask_margin 0.1016))
    (pad 6 smd rect (at 0.635 -3.154) (size 0.5 2.2) (layers Top F.Paste F.Mask)
      (net 4 /MISO) (solder_mask_margin 0.1016))
    (pad 7 smd rect (at -0.635 -3.154) (size 0.5 2.2) (layers Top F.Paste F.Mask)
      (net 5 /SCK) (solder_mask_margin 0.1016))
    (pad 8 smd rect (at -1.905 -3.154) (size 0.5 2.2) (layers Top F.Paste F.Mask)
      (net 1 VCC) (solder_mask_margin 0.1016))
    (pad 4 smd rect (at 1.895 3.154) (size 0.5 2.2) (layers Top F.Paste F.Mask)
      (net 2 GND) (solder_mask_margin 0.1016))
    (pad 3 smd rect (at 0.625 3.154) (size 0.5 2.2) (layers Top F.Paste F.Mask)
      (net 6 /ADC2) (solder_mask_margin 0.1016))
    (pad 2 smd rect (at -0.645 3.154) (size 0.5 2.2) (layers Top F.Paste F.Mask)
      (net 7 /ADC3) (solder_mask_margin 0.1016))
    (pad 1 smd rect (at -1.905 3.154) (size 0.5 2.2) (layers Top F.Paste F.Mask)
      (net 8 /RST) (solder_mask_margin 0.1016))
  )

  (module hello:R1206FAB (layer Top) (tedit 0) (tstamp 615D95A0)
    (at 115.8241 113.3906 90)
    (path /E0EA0F9E)
    (fp_text reference R1 (at -1.778 -1.27 90) (layer F.SilkS)
      (effects (font (size 0.9652 0.9652) (thickness 0.1524)) (justify left bottom))
    )
    (fp_text value 10K (at -1.778 2.286 90) (layer F.Fab)
      (effects (font (size 0.9652 0.9652) (thickness 0.1524)) (justify left bottom))
    )
    (fp_line (start -2.032 1.016) (end -2.032 -1.016) (layer F.SilkS) (width 0.127))
    (fp_line (start 2.032 1.016) (end -2.032 1.016) (layer F.SilkS) (width 0.127))
    (fp_line (start 2.032 -1.016) (end 2.032 1.016) (layer F.SilkS) (width 0.127))
    (fp_line (start -2.032 -1.016) (end 2.032 -1.016) (layer F.SilkS) (width 0.127))
    (pad 2 smd rect (at 1.651 0 90) (size 1.27 1.905) (layers Top F.Paste F.Mask)
      (net 1 VCC) (solder_mask_margin 0.1016))
    (pad 1 smd rect (at -1.651 0 90) (size 1.27 1.905) (layers Top F.Paste F.Mask)
      (net 8 /RST) (solder_mask_margin 0.1016))
  )

  (module hello:R1206FAB (layer Top) (tedit 0) (tstamp 615D95A9)
    (at 120.0151 104.3736 90)
    (path /8584CDB4)
    (fp_text reference R2 (at -1.778 -1.27 90) (layer F.SilkS)
      (effects (font (size 0.9652 0.9652) (thickness 0.1524)) (justify left bottom))
    )
    (fp_text value 499 (at -1.778 2.286 90) (layer F.Fab)
      (effects (font (size 0.9652 0.9652) (thickness 0.1524)) (justify left bottom))
    )
    (fp_line (start -2.032 1.016) (end -2.032 -1.016) (layer F.SilkS) (width 0.127))
    (fp_line (start 2.032 1.016) (end -2.032 1.016) (layer F.SilkS) (width 0.127))
    (fp_line (start 2.032 -1.016) (end 2.032 1.016) (layer F.SilkS) (width 0.127))
    (fp_line (start -2.032 -1.016) (end 2.032 -1.016) (layer F.SilkS) (width 0.127))
    (pad 2 smd rect (at 1.651 0 90) (size 1.27 1.905) (layers Top F.Paste F.Mask)
      (net 9 "Net-(LED1-Pad1)") (solder_mask_margin 0.1016))
    (pad 1 smd rect (at -1.651 0 90) (size 1.27 1.905) (layers Top F.Paste F.Mask)
      (net 5 /SCK) (solder_mask_margin 0.1016))
  )

  (module hello:LED1206FAB (layer Top) (tedit 0) (tstamp 615D95B2)
    (at 115.4431 102.3416 180)
    (descr "LED1206 FAB style (smaller pads to allow trace between)")
    (path /21043F5B)
    (fp_text reference LED1 (at -1.778 -1.27 180) (layer F.SilkS)
      (effects (font (size 0.9652 0.9652) (thickness 0.1524)) (justify right top))
    )
    (fp_text value YELLOW (at -1.778 2.286 180) (layer F.Fab)
      (effects (font (size 0.9652 0.9652) (thickness 0.1524)) (justify right top))
    )
    (fp_line (start -2.032 1.016) (end -2.032 -1.016) (layer F.SilkS) (width 0.127))
    (fp_line (start 2.032 1.016) (end -2.032 1.016) (layer F.SilkS) (width 0.127))
    (fp_line (start 2.032 -1.016) (end 2.032 1.016) (layer F.SilkS) (width 0.127))
    (fp_line (start -2.032 -1.016) (end 2.032 -1.016) (layer F.SilkS) (width 0.127))
    (pad 2 smd rect (at 1.651 0 180) (size 1.27 1.905) (layers Top F.Paste F.Mask)
      (net 2 GND) (solder_mask_margin 0.1016))
    (pad 1 smd rect (at -1.651 0 180) (size 1.27 1.905) (layers Top F.Paste F.Mask)
      (net 9 "Net-(LED1-Pad1)") (solder_mask_margin 0.1016))
  )

  (module hello:1206 (layer Top) (tedit 0) (tstamp 615D95BB)
    (at 123.8251 104.3736 90)
    (path /8F8E6998)
    (fp_text reference C3 (at -1.27 -1.143 90) (layer F.SilkS)
      (effects (font (size 0.38608 0.38608) (thickness 0.032512)) (justify left bottom))
    )
    (fp_text value 100nF (at -1.397 1.524 90) (layer F.Fab)
      (effects (font (size 0.38608 0.38608) (thickness 0.032512)) (justify left bottom))
    )
    (fp_poly (pts (xy -0.1999 0.4001) (xy 0.1999 0.4001) (xy 0.1999 -0.4001) (xy -0.1999 -0.4001)) (layer F.Adhes) (width 0))
    (fp_poly (pts (xy 0.9517 0.8491) (xy 1.7018 0.8491) (xy 1.7018 -0.8509) (xy 0.9517 -0.8509)) (layer F.Fab) (width 0))
    (fp_poly (pts (xy -1.7018 0.8509) (xy -0.9517 0.8509) (xy -0.9517 -0.8491) (xy -1.7018 -0.8491)) (layer F.Fab) (width 0))
    (fp_line (start -0.965 0.787) (end 0.965 0.787) (layer F.Fab) (width 0.1016))
    (fp_line (start -0.965 -0.787) (end 0.965 -0.787) (layer F.Fab) (width 0.1016))
    (fp_line (start 2.473 -0.983) (end 2.473 0.983) (layer Dwgs.User) (width 0.0508))
    (fp_line (start -2.473 0.983) (end -2.473 -0.983) (layer Dwgs.User) (width 0.0508))
    (fp_line (start 2.473 0.983) (end -2.473 0.983) (layer Dwgs.User) (width 0.0508))
    (fp_line (start -2.473 -0.983) (end 2.473 -0.983) (layer Dwgs.User) (width 0.0508))
    (pad 2 smd rect (at 1.4 0 90) (size 1.6 1.8) (layers Top F.Paste F.Mask)
      (net 2 GND) (solder_mask_margin 0.1016))
    (pad 1 smd rect (at -1.4 0 90) (size 1.6 1.8) (layers Top F.Paste F.Mask)
      (net 1 VCC) (solder_mask_margin 0.1016))
  )

  (module hello:1206 (layer Top) (tedit 0) (tstamp 615D95C9)
    (at 127.2541 104.3736 90)
    (path /EF84912C)
    (fp_text reference C1 (at -1.27 -1.143 90) (layer F.SilkS)
      (effects (font (size 0.38608 0.38608) (thickness 0.032512)) (justify left bottom))
    )
    (fp_text value 1uF (at -1.397 1.524 90) (layer F.Fab)
      (effects (font (size 0.38608 0.38608) (thickness 0.032512)) (justify left bottom))
    )
    (fp_poly (pts (xy -0.1999 0.4001) (xy 0.1999 0.4001) (xy 0.1999 -0.4001) (xy -0.1999 -0.4001)) (layer F.Adhes) (width 0))
    (fp_poly (pts (xy 0.9517 0.8491) (xy 1.7018 0.8491) (xy 1.7018 -0.8509) (xy 0.9517 -0.8509)) (layer F.Fab) (width 0))
    (fp_poly (pts (xy -1.7018 0.8509) (xy -0.9517 0.8509) (xy -0.9517 -0.8491) (xy -1.7018 -0.8491)) (layer F.Fab) (width 0))
    (fp_line (start -0.965 0.787) (end 0.965 0.787) (layer F.Fab) (width 0.1016))
    (fp_line (start -0.965 -0.787) (end 0.965 -0.787) (layer F.Fab) (width 0.1016))
    (fp_line (start 2.473 -0.983) (end 2.473 0.983) (layer Dwgs.User) (width 0.0508))
    (fp_line (start -2.473 0.983) (end -2.473 -0.983) (layer Dwgs.User) (width 0.0508))
    (fp_line (start 2.473 0.983) (end -2.473 0.983) (layer Dwgs.User) (width 0.0508))
    (fp_line (start -2.473 -0.983) (end 2.473 -0.983) (layer Dwgs.User) (width 0.0508))
    (pad 2 smd rect (at 1.4 0 90) (size 1.6 1.8) (layers Top F.Paste F.Mask)
      (net 2 GND) (solder_mask_margin 0.1016))
    (pad 1 smd rect (at -1.4 0 90) (size 1.6 1.8) (layers Top F.Paste F.Mask)
      (net 1 VCC) (solder_mask_margin 0.1016))
  )

  (module hello:1206 (layer Top) (tedit 0) (tstamp 615D95D7)
    (at 130.6831 104.3736 90)
    (path /03B11DE5)
    (fp_text reference C2 (at -1.27 -1.143 90) (layer F.SilkS)
      (effects (font (size 0.38608 0.38608) (thickness 0.032512)) (justify left bottom))
    )
    (fp_text value 10uF (at -1.397 1.524 90) (layer F.Fab)
      (effects (font (size 0.38608 0.38608) (thickness 0.032512)) (justify left bottom))
    )
    (fp_poly (pts (xy -0.1999 0.4001) (xy 0.1999 0.4001) (xy 0.1999 -0.4001) (xy -0.1999 -0.4001)) (layer F.Adhes) (width 0))
    (fp_poly (pts (xy 0.9517 0.8491) (xy 1.7018 0.8491) (xy 1.7018 -0.8509) (xy 0.9517 -0.8509)) (layer F.Fab) (width 0))
    (fp_poly (pts (xy -1.7018 0.8509) (xy -0.9517 0.8509) (xy -0.9517 -0.8491) (xy -1.7018 -0.8491)) (layer F.Fab) (width 0))
    (fp_line (start -0.965 0.787) (end 0.965 0.787) (layer F.Fab) (width 0.1016))
    (fp_line (start -0.965 -0.787) (end 0.965 -0.787) (layer F.Fab) (width 0.1016))
    (fp_line (start 2.473 -0.983) (end 2.473 0.983) (layer Dwgs.User) (width 0.0508))
    (fp_line (start -2.473 0.983) (end -2.473 -0.983) (layer Dwgs.User) (width 0.0508))
    (fp_line (start 2.473 0.983) (end -2.473 0.983) (layer Dwgs.User) (width 0.0508))
    (fp_line (start -2.473 -0.983) (end 2.473 -0.983) (layer Dwgs.User) (width 0.0508))
    (pad 2 smd rect (at 1.4 0 90) (size 1.6 1.8) (layers Top F.Paste F.Mask)
      (net 2 GND) (solder_mask_margin 0.1016))
    (pad 1 smd rect (at -1.4 0 90) (size 1.6 1.8) (layers Top F.Paste F.Mask)
      (net 1 VCC) (solder_mask_margin 0.1016))
  )

  (module hello:02P (layer Top) (tedit 0) (tstamp 615D95E5)
    (at 134.8741 103.3576 180)
    (descr "<b>AMP QUICK CONNECTOR</b>")
    (path /176E774F)
    (fp_text reference POWER_1 (at -2.286 -2.9464 180) (layer F.SilkS)
      (effects (font (size 1.2065 1.2065) (thickness 0.127)) (justify right top))
    )
    (fp_text value M02 (at -2.286 3.8354 180) (layer F.Fab)
      (effects (font (size 1.2065 1.2065) (thickness 0.127)) (justify right top))
    )
    (fp_poly (pts (xy 0.9398 0.3302) (xy 1.6002 0.3302) (xy 1.6002 -0.3302) (xy 0.9398 -0.3302)) (layer F.Fab) (width 0))
    (fp_poly (pts (xy -1.6002 0.3302) (xy -0.9398 0.3302) (xy -0.9398 -0.3302) (xy -1.6002 -0.3302)) (layer F.Fab) (width 0))
    (fp_line (start -0.254 -2.54) (end -1.016 -2.54) (layer F.SilkS) (width 0.1524))
    (fp_line (start -0.254 -2.413) (end -0.254 -2.54) (layer F.SilkS) (width 0.1524))
    (fp_line (start 0.254 -2.413) (end -0.254 -2.413) (layer F.SilkS) (width 0.1524))
    (fp_line (start 0.254 -2.54) (end 1.016 -2.54) (layer F.SilkS) (width 0.1524))
    (fp_line (start 0.254 -2.413) (end 0.254 -2.54) (layer F.SilkS) (width 0.1524))
    (fp_line (start 1.524 -2.667) (end 1.016 -2.667) (layer F.SilkS) (width 0.1524))
    (fp_line (start 1.524 -2.54) (end 1.524 -2.667) (layer F.SilkS) (width 0.1524))
    (fp_line (start 1.524 -2.54) (end 2.286 -2.54) (layer F.SilkS) (width 0.1524))
    (fp_line (start 1.016 -2.54) (end 1.016 -2.667) (layer F.SilkS) (width 0.1524))
    (fp_line (start -1.016 -2.667) (end -1.524 -2.667) (layer F.SilkS) (width 0.1524))
    (fp_line (start -1.016 -2.54) (end -1.016 -2.667) (layer F.SilkS) (width 0.1524))
    (fp_line (start -1.524 -2.54) (end -1.524 -2.667) (layer F.SilkS) (width 0.1524))
    (fp_line (start -2.286 -2.54) (end -1.524 -2.54) (layer F.SilkS) (width 0.1524))
    (fp_line (start -2.286 1.524) (end -2.286 1.778) (layer F.SilkS) (width 0.1524))
    (fp_line (start -1.905 1.524) (end -1.905 1.27) (layer F.SilkS) (width 0.1524))
    (fp_line (start -1.905 1.524) (end -2.286 1.524) (layer F.SilkS) (width 0.1524))
    (fp_line (start 2.286 1.524) (end 2.286 1.778) (layer F.SilkS) (width 0.1524))
    (fp_line (start 1.905 1.524) (end 1.905 1.27) (layer F.SilkS) (width 0.1524))
    (fp_line (start 1.905 1.524) (end 2.286 1.524) (layer F.SilkS) (width 0.1524))
    (fp_line (start -0.254 1.524) (end -0.254 -1.651) (layer F.SilkS) (width 0.1524))
    (fp_line (start -0.254 1.524) (end 0.254 1.524) (layer F.SilkS) (width 0.1524))
    (fp_line (start -0.635 1.524) (end -0.254 1.524) (layer F.SilkS) (width 0.1524))
    (fp_line (start 0.254 1.524) (end 0.254 -1.651) (layer F.SilkS) (width 0.1524))
    (fp_line (start 0.254 1.524) (end 0.635 1.524) (layer F.SilkS) (width 0.1524))
    (fp_line (start 0.635 1.524) (end 0.635 1.27) (layer F.SilkS) (width 0.1524))
    (fp_line (start 0.635 1.778) (end 0.635 1.524) (layer F.SilkS) (width 0.1524))
    (fp_line (start -0.635 1.524) (end -0.635 1.27) (layer F.SilkS) (width 0.1524))
    (fp_line (start -0.635 1.778) (end 0.635 1.778) (layer F.SilkS) (width 0.1524))
    (fp_line (start -1.905 1.27) (end -0.635 1.27) (layer F.SilkS) (width 0.1524))
    (fp_line (start -1.905 1.778) (end -1.905 1.524) (layer F.SilkS) (width 0.1524))
    (fp_line (start -0.635 1.778) (end -0.635 1.524) (layer F.SilkS) (width 0.1524))
    (fp_line (start 0.635 1.27) (end 1.905 1.27) (layer F.SilkS) (width 0.1524))
    (fp_line (start 1.905 1.778) (end 1.905 1.524) (layer F.SilkS) (width 0.1524))
    (fp_line (start 2.286 -1.778) (end 2.286 1.524) (layer F.SilkS) (width 0.1524))
    (fp_line (start 2.286 1.778) (end 1.905 1.778) (layer F.SilkS) (width 0.1524))
    (fp_line (start 2.286 1.778) (end 2.286 2.286) (layer F.SilkS) (width 0.1524))
    (fp_line (start -2.286 1.778) (end -1.905 1.778) (layer F.SilkS) (width 0.1524))
    (fp_line (start -2.286 1.778) (end -2.286 2.286) (layer F.SilkS) (width 0.1524))
    (fp_line (start -2.286 -1.778) (end -2.286 1.524) (layer F.SilkS) (width 0.1524))
    (fp_line (start 2.286 -1.778) (end 2.286 -2.54) (layer F.SilkS) (width 0.1524))
    (fp_line (start 0.381 -1.778) (end 2.286 -1.778) (layer F.SilkS) (width 0.1524))
    (fp_line (start 2.286 2.286) (end 0.254 2.286) (layer F.SilkS) (width 0.1524))
    (fp_line (start 0.254 2.159) (end 0.254 2.286) (layer F.SilkS) (width 0.1524))
    (fp_line (start 0.254 2.159) (end -0.254 2.159) (layer F.SilkS) (width 0.1524))
    (fp_line (start -0.254 2.286) (end -2.286 2.286) (layer F.SilkS) (width 0.1524))
    (fp_line (start -0.254 2.159) (end -0.254 2.286) (layer F.SilkS) (width 0.1524))
    (fp_line (start 0.254 -1.651) (end 0.381 -1.778) (layer F.SilkS) (width 0.1524))
    (fp_line (start 0 -1.397) (end 0.254 -1.651) (layer F.SilkS) (width 0.1524))
    (fp_line (start -0.254 -1.651) (end 0 -1.397) (layer F.SilkS) (width 0.1524))
    (fp_line (start -0.381 -1.778) (end -0.254 -1.651) (layer F.SilkS) (width 0.1524))
    (fp_line (start -2.286 -1.778) (end -0.381 -1.778) (layer F.SilkS) (width 0.1524))
    (fp_line (start -2.286 -2.54) (end -2.286 -1.778) (layer F.SilkS) (width 0.1524))
    (fp_text user 1 (at -0.762 -0.9398 270) (layer F.SilkS)
      (effects (font (size 0.94107 0.94107) (thickness 0.118872)) (justify left bottom))
    )
    (pad 2 thru_hole oval (at 1.27 0 270) (size 2.8448 1.4224) (drill 0.9144) (layers *.Cu *.Mask)
      (net 1 VCC) (solder_mask_margin 0.1016))
    (pad 1 thru_hole oval (at -1.27 0 270) (size 2.8448 1.4224) (drill 0.9144) (layers *.Cu *.Mask)
      (net 2 GND) (solder_mask_margin 0.1016))
  )

  (module hello:02P (layer Top) (tedit 0) (tstamp 615D9621)
    (at 134.8741 108.0566 180)
    (descr "<b>AMP QUICK CONNECTOR</b>")
    (path /79F26ED8)
    (fp_text reference POWER_2 (at -2.286 -2.9464 180) (layer F.SilkS)
      (effects (font (size 1.2065 1.2065) (thickness 0.127)) (justify right top))
    )
    (fp_text value M02 (at -2.286 3.8354 180) (layer F.Fab)
      (effects (font (size 1.2065 1.2065) (thickness 0.127)) (justify right top))
    )
    (fp_poly (pts (xy 0.9398 0.3302) (xy 1.6002 0.3302) (xy 1.6002 -0.3302) (xy 0.9398 -0.3302)) (layer F.Fab) (width 0))
    (fp_poly (pts (xy -1.6002 0.3302) (xy -0.9398 0.3302) (xy -0.9398 -0.3302) (xy -1.6002 -0.3302)) (layer F.Fab) (width 0))
    (fp_line (start -0.254 -2.54) (end -1.016 -2.54) (layer F.SilkS) (width 0.1524))
    (fp_line (start -0.254 -2.413) (end -0.254 -2.54) (layer F.SilkS) (width 0.1524))
    (fp_line (start 0.254 -2.413) (end -0.254 -2.413) (layer F.SilkS) (width 0.1524))
    (fp_line (start 0.254 -2.54) (end 1.016 -2.54) (layer F.SilkS) (width 0.1524))
    (fp_line (start 0.254 -2.413) (end 0.254 -2.54) (layer F.SilkS) (width 0.1524))
    (fp_line (start 1.524 -2.667) (end 1.016 -2.667) (layer F.SilkS) (width 0.1524))
    (fp_line (start 1.524 -2.54) (end 1.524 -2.667) (layer F.SilkS) (width 0.1524))
    (fp_line (start 1.524 -2.54) (end 2.286 -2.54) (layer F.SilkS) (width 0.1524))
    (fp_line (start 1.016 -2.54) (end 1.016 -2.667) (layer F.SilkS) (width 0.1524))
    (fp_line (start -1.016 -2.667) (end -1.524 -2.667) (layer F.SilkS) (width 0.1524))
    (fp_line (start -1.016 -2.54) (end -1.016 -2.667) (layer F.SilkS) (width 0.1524))
    (fp_line (start -1.524 -2.54) (end -1.524 -2.667) (layer F.SilkS) (width 0.1524))
    (fp_line (start -2.286 -2.54) (end -1.524 -2.54) (layer F.SilkS) (width 0.1524))
    (fp_line (start -2.286 1.524) (end -2.286 1.778) (layer F.SilkS) (width 0.1524))
    (fp_line (start -1.905 1.524) (end -1.905 1.27) (layer F.SilkS) (width 0.1524))
    (fp_line (start -1.905 1.524) (end -2.286 1.524) (layer F.SilkS) (width 0.1524))
    (fp_line (start 2.286 1.524) (end 2.286 1.778) (layer F.SilkS) (width 0.1524))
    (fp_line (start 1.905 1.524) (end 1.905 1.27) (layer F.SilkS) (width 0.1524))
    (fp_line (start 1.905 1.524) (end 2.286 1.524) (layer F.SilkS) (width 0.1524))
    (fp_line (start -0.254 1.524) (end -0.254 -1.651) (layer F.SilkS) (width 0.1524))
    (fp_line (start -0.254 1.524) (end 0.254 1.524) (layer F.SilkS) (width 0.1524))
    (fp_line (start -0.635 1.524) (end -0.254 1.524) (layer F.SilkS) (width 0.1524))
    (fp_line (start 0.254 1.524) (end 0.254 -1.651) (layer F.SilkS) (width 0.1524))
    (fp_line (start 0.254 1.524) (end 0.635 1.524) (layer F.SilkS) (width 0.1524))
    (fp_line (start 0.635 1.524) (end 0.635 1.27) (layer F.SilkS) (width 0.1524))
    (fp_line (start 0.635 1.778) (end 0.635 1.524) (layer F.SilkS) (width 0.1524))
    (fp_line (start -0.635 1.524) (end -0.635 1.27) (layer F.SilkS) (width 0.1524))
    (fp_line (start -0.635 1.778) (end 0.635 1.778) (layer F.SilkS) (width 0.1524))
    (fp_line (start -1.905 1.27) (end -0.635 1.27) (layer F.SilkS) (width 0.1524))
    (fp_line (start -1.905 1.778) (end -1.905 1.524) (layer F.SilkS) (width 0.1524))
    (fp_line (start -0.635 1.778) (end -0.635 1.524) (layer F.SilkS) (width 0.1524))
    (fp_line (start 0.635 1.27) (end 1.905 1.27) (layer F.SilkS) (width 0.1524))
    (fp_line (start 1.905 1.778) (end 1.905 1.524) (layer F.SilkS) (width 0.1524))
    (fp_line (start 2.286 -1.778) (end 2.286 1.524) (layer F.SilkS) (width 0.1524))
    (fp_line (start 2.286 1.778) (end 1.905 1.778) (layer F.SilkS) (width 0.1524))
    (fp_line (start 2.286 1.778) (end 2.286 2.286) (layer F.SilkS) (width 0.1524))
    (fp_line (start -2.286 1.778) (end -1.905 1.778) (layer F.SilkS) (width 0.1524))
    (fp_line (start -2.286 1.778) (end -2.286 2.286) (layer F.SilkS) (width 0.1524))
    (fp_line (start -2.286 -1.778) (end -2.286 1.524) (layer F.SilkS) (width 0.1524))
    (fp_line (start 2.286 -1.778) (end 2.286 -2.54) (layer F.SilkS) (width 0.1524))
    (fp_line (start 0.381 -1.778) (end 2.286 -1.778) (layer F.SilkS) (width 0.1524))
    (fp_line (start 2.286 2.286) (end 0.254 2.286) (layer F.SilkS) (width 0.1524))
    (fp_line (start 0.254 2.159) (end 0.254 2.286) (layer F.SilkS) (width 0.1524))
    (fp_line (start 0.254 2.159) (end -0.254 2.159) (layer F.SilkS) (width 0.1524))
    (fp_line (start -0.254 2.286) (end -2.286 2.286) (layer F.SilkS) (width 0.1524))
    (fp_line (start -0.254 2.159) (end -0.254 2.286) (layer F.SilkS) (width 0.1524))
    (fp_line (start 0.254 -1.651) (end 0.381 -1.778) (layer F.SilkS) (width 0.1524))
    (fp_line (start 0 -1.397) (end 0.254 -1.651) (layer F.SilkS) (width 0.1524))
    (fp_line (start -0.254 -1.651) (end 0 -1.397) (layer F.SilkS) (width 0.1524))
    (fp_line (start -0.381 -1.778) (end -0.254 -1.651) (layer F.SilkS) (width 0.1524))
    (fp_line (start -2.286 -1.778) (end -0.381 -1.778) (layer F.SilkS) (width 0.1524))
    (fp_line (start -2.286 -2.54) (end -2.286 -1.778) (layer F.SilkS) (width 0.1524))
    (fp_text user 1 (at -0.762 -0.9398 270) (layer F.SilkS)
      (effects (font (size 0.94107 0.94107) (thickness 0.118872)) (justify left bottom))
    )
    (pad 2 thru_hole oval (at 1.27 0 270) (size 2.8448 1.4224) (drill 0.9144) (layers *.Cu *.Mask)
      (net 1 VCC) (solder_mask_margin 0.1016))
    (pad 1 thru_hole oval (at -1.27 0 270) (size 2.8448 1.4224) (drill 0.9144) (layers *.Cu *.Mask)
      (net 2 GND) (solder_mask_margin 0.1016))
  )

  (module hello:05P (layer Top) (tedit 0) (tstamp 615D965D)
    (at 134.8741 116.1846 90)
    (descr "<b>AMP QUICK CONNECTOR</b>")
    (path /858D667E)
    (fp_text reference M5 (at -6.096 -2.9464 90) (layer F.SilkS)
      (effects (font (size 1.2065 1.2065) (thickness 0.127)) (justify left bottom))
    )
    (fp_text value M05 (at -6.096 3.8354 90) (layer F.Fab)
      (effects (font (size 1.2065 1.2065) (thickness 0.127)) (justify left bottom))
    )
    (fp_poly (pts (xy 4.7498 0.3302) (xy 5.4102 0.3302) (xy 5.4102 -0.3302) (xy 4.7498 -0.3302)) (layer F.Fab) (width 0))
    (fp_poly (pts (xy 2.2098 0.3302) (xy 2.8702 0.3302) (xy 2.8702 -0.3302) (xy 2.2098 -0.3302)) (layer F.Fab) (width 0))
    (fp_poly (pts (xy -0.3302 0.3302) (xy 0.3302 0.3302) (xy 0.3302 -0.3302) (xy -0.3302 -0.3302)) (layer F.Fab) (width 0))
    (fp_poly (pts (xy -2.8702 0.3302) (xy -2.2098 0.3302) (xy -2.2098 -0.3302) (xy -2.8702 -0.3302)) (layer F.Fab) (width 0))
    (fp_poly (pts (xy -5.4102 0.3302) (xy -4.7498 0.3302) (xy -4.7498 -0.3302) (xy -5.4102 -0.3302)) (layer F.Fab) (width 0))
    (fp_line (start 1.905 1.27) (end 3.175 1.27) (layer F.SilkS) (width 0.1524))
    (fp_line (start 1.524 -2.54) (end 1.524 -2.413) (layer F.SilkS) (width 0.1524))
    (fp_line (start 1.016 -2.54) (end 1.016 -2.413) (layer F.SilkS) (width 0.1524))
    (fp_line (start 1.524 -2.413) (end 1.016 -2.413) (layer F.SilkS) (width 0.1524))
    (fp_line (start 1.524 -1.778) (end 1.016 -1.778) (layer F.SilkS) (width 0.1524))
    (fp_line (start 1.524 1.524) (end 1.016 1.524) (layer F.SilkS) (width 0.1524))
    (fp_line (start 1.905 1.778) (end 0.635 1.778) (layer F.SilkS) (width 0.1524))
    (fp_line (start 1.524 2.159) (end 1.016 2.159) (layer F.SilkS) (width 0.1524))
    (fp_line (start 1.524 2.159) (end 1.524 2.286) (layer F.SilkS) (width 0.1524))
    (fp_line (start 1.016 2.159) (end 1.016 2.286) (layer F.SilkS) (width 0.1524))
    (fp_line (start 1.524 -1.778) (end 3.429 -1.778) (layer F.SilkS) (width 0.1524))
    (fp_line (start -1.016 -1.778) (end 1.016 -1.778) (layer F.SilkS) (width 0.1524))
    (fp_line (start 3.556 2.159) (end 3.556 2.286) (layer F.SilkS) (width 0.1524))
    (fp_line (start 3.175 1.778) (end 4.445 1.778) (layer F.SilkS) (width 0.1524))
    (fp_line (start 1.524 2.286) (end 3.556 2.286) (layer F.SilkS) (width 0.1524))
    (fp_line (start 4.064 -1.651) (end 4.064 1.524) (layer F.SilkS) (width 0.1524))
    (fp_line (start 3.556 -1.651) (end 3.556 1.524) (layer F.SilkS) (width 0.1524))
    (fp_line (start 1.524 -2.54) (end 2.286 -2.54) (layer F.SilkS) (width 0.1524))
    (fp_line (start 2.794 -2.667) (end 2.286 -2.667) (layer F.SilkS) (width 0.1524))
    (fp_line (start 2.794 -2.54) (end 3.556 -2.54) (layer F.SilkS) (width 0.1524))
    (fp_line (start 3.556 -1.651) (end 3.81 -1.397) (layer F.SilkS) (width 0.1524))
    (fp_line (start 3.429 -1.778) (end 3.556 -1.651) (layer F.SilkS) (width 0.1524))
    (fp_line (start 3.556 -2.413) (end 3.556 -2.54) (layer F.SilkS) (width 0.1524))
    (fp_line (start 4.064 -2.413) (end 3.556 -2.413) (layer F.SilkS) (width 0.1524))
    (fp_line (start 4.064 -2.54) (end 4.826 -2.54) (layer F.SilkS) (width 0.1524))
    (fp_line (start 4.064 -2.413) (end 4.064 -2.54) (layer F.SilkS) (width 0.1524))
    (fp_line (start 5.334 -2.667) (end 4.826 -2.667) (layer F.SilkS) (width 0.1524))
    (fp_line (start 5.334 -2.54) (end 5.334 -2.667) (layer F.SilkS) (width 0.1524))
    (fp_line (start 5.334 -2.54) (end 6.096 -2.54) (layer F.SilkS) (width 0.1524))
    (fp_line (start 4.826 -2.54) (end 4.826 -2.667) (layer F.SilkS) (width 0.1524))
    (fp_line (start 6.096 1.524) (end 6.096 1.778) (layer F.SilkS) (width 0.1524))
    (fp_line (start 5.715 1.524) (end 5.715 1.27) (layer F.SilkS) (width 0.1524))
    (fp_line (start 5.715 1.524) (end 6.096 1.524) (layer F.SilkS) (width 0.1524))
    (fp_line (start 4.064 1.524) (end 4.445 1.524) (layer F.SilkS) (width 0.1524))
    (fp_line (start 3.556 1.524) (end 4.064 1.524) (layer F.SilkS) (width 0.1524))
    (fp_line (start 3.175 1.524) (end 3.556 1.524) (layer F.SilkS) (width 0.1524))
    (fp_line (start 4.445 1.524) (end 4.445 1.27) (layer F.SilkS) (width 0.1524))
    (fp_line (start 4.445 1.778) (end 4.445 1.524) (layer F.SilkS) (width 0.1524))
    (fp_line (start 3.175 1.524) (end 3.175 1.27) (layer F.SilkS) (width 0.1524))
    (fp_line (start 3.175 1.778) (end 3.175 1.524) (layer F.SilkS) (width 0.1524))
    (fp_line (start 4.445 1.27) (end 5.715 1.27) (layer F.SilkS) (width 0.1524))
    (fp_line (start 5.715 1.778) (end 5.715 1.524) (layer F.SilkS) (width 0.1524))
    (fp_line (start 6.096 -1.778) (end 6.096 1.524) (layer F.SilkS) (width 0.1524))
    (fp_line (start 6.096 1.778) (end 5.715 1.778) (layer F.SilkS) (width 0.1524))
    (fp_line (start 6.096 1.778) (end 6.096 2.286) (layer F.SilkS) (width 0.1524))
    (fp_line (start 6.096 -1.778) (end 6.096 -2.54) (layer F.SilkS) (width 0.1524))
    (fp_line (start 4.191 -1.778) (end 6.096 -1.778) (layer F.SilkS) (width 0.1524))
    (fp_line (start 6.096 2.286) (end 4.064 2.286) (layer F.SilkS) (width 0.1524))
    (fp_line (start 4.064 2.159) (end 4.064 2.286) (layer F.SilkS) (width 0.1524))
    (fp_line (start 4.064 2.159) (end 3.556 2.159) (layer F.SilkS) (width 0.1524))
    (fp_line (start 4.064 -1.651) (end 4.191 -1.778) (layer F.SilkS) (width 0.1524))
    (fp_line (start 3.81 -1.397) (end 4.064 -1.651) (layer F.SilkS) (width 0.1524))
    (fp_line (start 2.794 -2.54) (end 2.794 -2.667) (layer F.SilkS) (width 0.1524))
    (fp_line (start 2.286 -2.54) (end 2.286 -2.667) (layer F.SilkS) (width 0.1524))
    (fp_line (start 1.905 1.524) (end 1.905 1.27) (layer F.SilkS) (width 0.1524))
    (fp_line (start 1.905 1.524) (end 1.524 1.524) (layer F.SilkS) (width 0.1524))
    (fp_line (start 1.905 1.778) (end 1.905 1.524) (layer F.SilkS) (width 0.1524))
    (fp_line (start 1.524 -1.778) (end 1.524 1.524) (layer F.SilkS) (width 0.1524))
    (fp_line (start -1.524 2.159) (end -1.524 2.286) (layer F.SilkS) (width 0.1524))
    (fp_line (start -1.905 1.778) (end -0.635 1.778) (layer F.SilkS) (width 0.1524))
    (fp_line (start -3.556 2.286) (end -1.524 2.286) (layer F.SilkS) (width 0.1524))
    (fp_line (start -3.175 1.778) (end -4.445 1.778) (layer F.SilkS) (width 0.1524))
    (fp_line (start -3.175 1.27) (end -1.905 1.27) (layer F.SilkS) (width 0.1524))
    (fp_line (start -1.016 -1.778) (end -1.016 1.524) (layer F.SilkS) (width 0.1524))
    (fp_line (start -1.524 -1.778) (end -1.524 1.524) (layer F.SilkS) (width 0.1524))
    (fp_line (start -4.064 -1.651) (end -4.064 1.524) (layer F.SilkS) (width 0.1524))
    (fp_line (start -3.556 -1.651) (end -3.556 1.524) (layer F.SilkS) (width 0.1524))
    (fp_line (start -1.524 -1.778) (end -1.016 -1.778) (layer F.SilkS) (width 0.1524))
    (fp_line (start -3.429 -1.778) (end -1.524 -1.778) (layer F.SilkS) (width 0.1524))
    (fp_line (start -4.191 -1.778) (end -6.096 -1.778) (layer F.SilkS) (width 0.1524))
    (fp_line (start -4.064 -2.54) (end -4.826 -2.54) (layer F.SilkS) (width 0.1524))
    (fp_line (start -4.064 -2.413) (end -3.556 -2.413) (layer F.SilkS) (width 0.1524))
    (fp_line (start -3.556 -2.54) (end -2.794 -2.54) (layer F.SilkS) (width 0.1524))
    (fp_line (start -2.286 -2.667) (end -2.794 -2.667) (layer F.SilkS) (width 0.1524))
    (fp_line (start -2.286 -2.54) (end -1.524 -2.54) (layer F.SilkS) (width 0.1524))
    (fp_line (start -1.524 -2.413) (end -1.524 -2.54) (layer F.SilkS) (width 0.1524))
    (fp_line (start -1.016 -2.413) (end -1.524 -2.413) (layer F.SilkS) (width 0.1524))
    (fp_line (start -1.016 -2.54) (end -0.254 -2.54) (layer F.SilkS) (width 0.1524))
    (fp_line (start -1.016 -2.413) (end -1.016 -2.54) (layer F.SilkS) (width 0.1524))
    (fp_line (start 0.254 -2.667) (end -0.254 -2.667) (layer F.SilkS) (width 0.1524))
    (fp_line (start 0.254 -2.54) (end 0.254 -2.667) (layer F.SilkS) (width 0.1524))
    (fp_line (start 0.254 -2.54) (end 1.016 -2.54) (layer F.SilkS) (width 0.1524))
    (fp_line (start -0.254 -2.54) (end -0.254 -2.667) (layer F.SilkS) (width 0.1524))
    (fp_line (start 0.635 1.524) (end 0.635 1.27) (layer F.SilkS) (width 0.1524))
    (fp_line (start 0.635 1.524) (end 1.016 1.524) (layer F.SilkS) (width 0.1524))
    (fp_line (start -1.016 1.524) (end -0.635 1.524) (layer F.SilkS) (width 0.1524))
    (fp_line (start -1.524 1.524) (end -1.016 1.524) (layer F.SilkS) (width 0.1524))
    (fp_line (start -1.905 1.524) (end -1.524 1.524) (layer F.SilkS) (width 0.1524))
    (fp_line (start -0.635 1.524) (end -0.635 1.27) (layer F.SilkS) (width 0.1524))
    (fp_line (start -0.635 1.778) (end -0.635 1.524) (layer F.SilkS) (width 0.1524))
    (fp_line (start -1.905 1.524) (end -1.905 1.27) (layer F.SilkS) (width 0.1524))
    (fp_line (start -1.905 1.778) (end -1.905 1.524) (layer F.SilkS) (width 0.1524))
    (fp_line (start -0.635 1.27) (end 0.635 1.27) (layer F.SilkS) (width 0.1524))
    (fp_line (start 0.635 1.778) (end 0.635 1.524) (layer F.SilkS) (width 0.1524))
    (fp_line (start 1.016 -1.778) (end 1.016 1.524) (layer F.SilkS) (width 0.1524))
    (fp_line (start 1.016 2.286) (end -1.016 2.286) (layer F.SilkS) (width 0.1524))
    (fp_line (start -1.016 2.159) (end -1.016 2.286) (layer F.SilkS) (width 0.1524))
    (fp_line (start -1.016 2.159) (end -1.524 2.159) (layer F.SilkS) (width 0.1524))
    (fp_line (start -4.064 -2.413) (end -4.064 -2.54) (layer F.SilkS) (width 0.1524))
    (fp_line (start -3.556 -2.413) (end -3.556 -2.54) (layer F.SilkS) (width 0.1524))
    (fp_line (start -2.286 -2.54) (end -2.286 -2.667) (layer F.SilkS) (width 0.1524))
    (fp_line (start -2.794 -2.54) (end -2.794 -2.667) (layer F.SilkS) (width 0.1524))
    (fp_line (start -4.826 -2.667) (end -5.334 -2.667) (layer F.SilkS) (width 0.1524))
    (fp_line (start -4.826 -2.54) (end -4.826 -2.667) (layer F.SilkS) (width 0.1524))
    (fp_line (start -5.334 -2.54) (end -5.334 -2.667) (layer F.SilkS) (width 0.1524))
    (fp_line (start -6.096 -2.54) (end -5.334 -2.54) (layer F.SilkS) (width 0.1524))
    (fp_line (start -6.096 1.524) (end -6.096 1.778) (layer F.SilkS) (width 0.1524))
    (fp_line (start -5.715 1.524) (end -5.715 1.27) (layer F.SilkS) (width 0.1524))
    (fp_line (start -5.715 1.524) (end -6.096 1.524) (layer F.SilkS) (width 0.1524))
    (fp_line (start -3.556 1.524) (end -3.175 1.524) (layer F.SilkS) (width 0.1524))
    (fp_line (start -4.064 1.524) (end -3.556 1.524) (layer F.SilkS) (width 0.1524))
    (fp_line (start -4.445 1.524) (end -4.064 1.524) (layer F.SilkS) (width 0.1524))
    (fp_line (start -3.175 1.524) (end -3.175 1.27) (layer F.SilkS) (width 0.1524))
    (fp_line (start -3.175 1.778) (end -3.175 1.524) (layer F.SilkS) (width 0.1524))
    (fp_line (start -4.445 1.524) (end -4.445 1.27) (layer F.SilkS) (width 0.1524))
    (fp_line (start -5.715 1.27) (end -4.445 1.27) (layer F.SilkS) (width 0.1524))
    (fp_line (start -5.715 1.778) (end -5.715 1.524) (layer F.SilkS) (width 0.1524))
    (fp_line (start -4.445 1.778) (end -4.445 1.524) (layer F.SilkS) (width 0.1524))
    (fp_line (start -6.096 1.778) (end -5.715 1.778) (layer F.SilkS) (width 0.1524))
    (fp_line (start -6.096 1.778) (end -6.096 2.286) (layer F.SilkS) (width 0.1524))
    (fp_line (start -6.096 -1.778) (end -6.096 1.524) (layer F.SilkS) (width 0.1524))
    (fp_line (start -6.096 -2.54) (end -6.096 -1.778) (layer F.SilkS) (width 0.1524))
    (fp_line (start -3.556 2.159) (end -3.556 2.286) (layer F.SilkS) (width 0.1524))
    (fp_line (start -3.556 2.159) (end -4.064 2.159) (layer F.SilkS) (width 0.1524))
    (fp_line (start -4.064 2.286) (end -6.096 2.286) (layer F.SilkS) (width 0.1524))
    (fp_line (start -4.064 2.159) (end -4.064 2.286) (layer F.SilkS) (width 0.1524))
    (fp_line (start -3.556 -1.651) (end -3.429 -1.778) (layer F.SilkS) (width 0.1524))
    (fp_line (start -3.81 -1.397) (end -3.556 -1.651) (layer F.SilkS) (width 0.1524))
    (fp_line (start -4.064 -1.651) (end -3.81 -1.397) (layer F.SilkS) (width 0.1524))
    (fp_line (start -4.191 -1.778) (end -4.064 -1.651) (layer F.SilkS) (width 0.1524))
    (fp_text user 1 (at -4.572 -0.9398 180) (layer F.SilkS)
      (effects (font (size 0.94107 0.94107) (thickness 0.118872)) (justify left bottom))
    )
    (pad 5 thru_hole oval (at 5.08 0 180) (size 2.8448 1.4224) (drill 0.9144) (layers *.Cu *.Mask)
      (net 3 /MOSI) (solder_mask_margin 0.1016))
    (pad 4 thru_hole oval (at 2.54 0 180) (size 2.8448 1.4224) (drill 0.9144) (layers *.Cu *.Mask)
      (net 4 /MISO) (solder_mask_margin 0.1016))
    (pad 3 thru_hole oval (at 0 0 180) (size 2.8448 1.4224) (drill 0.9144) (layers *.Cu *.Mask)
      (net 5 /SCK) (solder_mask_margin 0.1016))
    (pad 2 thru_hole oval (at -2.54 0 180) (size 2.8448 1.4224) (drill 0.9144) (layers *.Cu *.Mask)
      (net 6 /ADC2) (solder_mask_margin 0.1016))
    (pad 1 thru_hole oval (at -5.08 0 180) (size 2.8448 1.4224) (drill 0.9144) (layers *.Cu *.Mask)
      (net 7 /ADC3) (solder_mask_margin 0.1016))
  )

  (module hello:1X01_LONGPAD (layer Top) (tedit 0) (tstamp 615D96ED)
    (at 117.3481 120.7566 90)
    (path /4D8912F9)
    (fp_text reference RST1 (at -1.3462 -1.8288 90) (layer F.SilkS)
      (effects (font (size 1.2065 1.2065) (thickness 0.127)) (justify left bottom))
    )
    (fp_text value M01 (at -1.27 3.175 90) (layer F.Fab)
      (effects (font (size 1.2065 1.2065) (thickness 0.1016)) (justify left bottom))
    )
    (fp_poly (pts (xy -0.254 0.254) (xy 0.254 0.254) (xy 0.254 -0.254) (xy -0.254 -0.254)) (layer F.Fab) (width 0))
    (fp_line (start 1.27 -0.635) (end 1.27 0.635) (layer F.SilkS) (width 0.2032))
    (fp_line (start -1.27 -0.635) (end -1.27 0.635) (layer F.SilkS) (width 0.2032))
    (pad 1 thru_hole oval (at 0 0 180) (size 3.7592 1.8796) (drill 1.016) (layers *.Cu *.Mask)
      (net 8 /RST) (solder_mask_margin 0.1016))
  )

  (gr_line (start 110.49 124.46) (end 110.49 97.79) (layer Edge.Cuts) (width 0.05) (tstamp 61640376))
  (gr_line (start 139.7 124.46) (end 110.49 124.46) (layer Edge.Cuts) (width 0.05))
  (gr_line (start 139.7 97.79) (end 139.7 124.46) (layer Edge.Cuts) (width 0.05))
  (gr_line (start 110.49 97.79) (end 139.7 97.79) (layer Edge.Cuts) (width 0.05))

  (segment (start 120.9041 110.3636) (end 117.0941 110.3636) (width 0.4064) (layer Top) (net 1) (tstamp 204A6D0))
  (segment (start 117.0941 104.3736) (end 117.0941 110.3636) (width 0.4064) (layer Top) (net 1) (tstamp 204A760))
  (segment (start 123.8251 105.7736) (end 127.2541 105.7736) (width 0.4064) (layer Top) (net 1) (tstamp 204A910))
  (segment (start 127.2541 105.7736) (end 130.6831 105.7736) (width 0.4064) (layer Top) (net 1) (tstamp 204A9A0))
  (segment (start 115.8241 111.7396) (end 117.0941 110.3636) (width 0.4064) (layer Top) (net 1) (tstamp 204AA30))
  (segment (start 133.6041 103.3576) (end 133.6041 105.7706) (width 0.4064) (layer Top) (net 1) (tstamp 204AAC0))
  (segment (start 133.6041 105.7706) (end 133.6041 108.0566) (width 0.4064) (layer Top) (net 1) (tstamp 204AB50))
  (segment (start 130.6831 105.7706) (end 133.6041 105.7706) (width 0.4064) (layer Top) (net 1) (tstamp 204AC70))
  (segment (start 123.8251 105.7736) (end 122.6646 105.7736) (width 0.4064) (layer Top) (net 1))
  (segment (start 121.2646 104.3736) (end 117.0941 104.3736) (width 0.4064) (layer Top) (net 1))
  (segment (start 122.6646 105.7736) (end 121.2646 104.3736) (width 0.4064) (layer Top) (net 1))
  (segment (start 118.9991 113.3906) (end 120.1421 114.5336) (width 0.4064) (layer Top) (net 2) (tstamp 204B210))
  (segment (start 120.1421 114.5336) (end 124.7041 114.5336) (width 0.4064) (layer Top) (net 2) (tstamp 204B2A0))
  (segment (start 124.7041 114.5336) (end 124.7041 116.6716) (width 0.4064) (layer Top) (net 2) (tstamp 204B330))
  (segment (start 113.7921 113.3906) (end 118.9991 113.3906) (width 0.4064) (layer Top) (net 2) (tstamp 204B3C0))
  (segment (start 123.8251 102.9736) (end 123.8251 100.9446) (width 0.4064) (layer Top) (net 2) (tstamp 204B450))
  (segment (start 123.8251 100.9446) (end 123.0631 100.1826) (width 0.4064) (layer Top) (net 2) (tstamp 204B4E0))
  (segment (start 123.0631 100.1826) (end 115.1891 100.1826) (width 0.4064) (layer Top) (net 2) (tstamp 204B570))
  (segment (start 115.1891 100.1826) (end 113.7921 101.5796) (width 0.4064) (layer Top) (net 2) (tstamp 204B600))
  (segment (start 113.7921 102.3416) (end 113.7921 113.3906) (width 0.4064) (layer Top) (net 2) (tstamp 204B720))
  (segment (start 123.8251 102.9736) (end 127.2541 102.9736) (width 0.4064) (layer Top) (net 2) (tstamp 204B7B0))
  (segment (start 127.2541 102.9736) (end 130.6831 102.9736) (width 0.4064) (layer Top) (net 2) (tstamp 204B840))
  (segment (start 130.6831 102.9736) (end 130.6831 100.8176) (width 0.4064) (layer Top) (net 2) (tstamp 204B8D0))
  (segment (start 130.6831 100.8176) (end 131.1911 100.3096) (width 0.4064) (layer Top) (net 2) (tstamp 204B960))
  (segment (start 131.1911 100.3096) (end 135.7631 100.3096) (width 0.4064) (layer Top) (net 2) (tstamp 204B9F0))
  (segment (start 135.7631 100.3096) (end 136.1441 100.6906) (width 0.4064) (layer Top) (net 2) (tstamp 204BA80))
  (segment (start 136.1441 100.6906) (end 136.1441 103.3576) (width 0.4064) (layer Top) (net 2) (tstamp 204BB10))
  (segment (start 136.1441 103.3576) (end 136.1441 108.0566) (width 0.4064) (layer Top) (net 2) (tstamp 204BBA0))
  (segment (start 124.7141 110.3636) (end 134.1331 110.3636) (width 0.4064) (layer Top) (net 3) (tstamp 20713B0))
  (segment (start 134.1331 110.3636) (end 134.8741 111.1046) (width 0.4064) (layer Top) (net 3) (tstamp 2071440))
  (segment (start 123.4441 110.3636) (end 123.4441 111.9936) (width 0.4064) (layer Top) (net 4) (tstamp 2070240))
  (segment (start 123.4441 111.9936) (end 123.9521 112.5016) (width 0.4064) (layer Top) (net 4) (tstamp 20702D0))
  (segment (start 123.9521 112.5016) (end 130.1751 112.5016) (width 0.4064) (layer Top) (net 4) (tstamp 2070360))
  (segment (start 130.1751 112.5016) (end 131.3181 113.6446) (width 0.4064) (layer Top) (net 4) (tstamp 20703F0))
  (segment (start 131.3181 113.6446) (end 134.8741 113.6446) (width 0.4064) (layer Top) (net 4) (tstamp 2070480))
  (segment (start 122.1741 110.3636) (end 122.1741 113.3906) (width 0.4064) (layer Top) (net 5) (tstamp 2071710))
  (segment (start 122.1741 113.3906) (end 122.4281 113.6446) (width 0.4064) (layer Top) (net 5) (tstamp 20717A0))
  (segment (start 122.1741 110.3636) (end 122.1741 108.1836) (width 0.4064) (layer Top) (net 5) (tstamp 2071830))
  (segment (start 122.1741 108.1836) (end 120.0151 106.0246) (width 0.4064) (layer Top) (net 5) (tstamp 20718C0))
  (segment (start 122.4281 113.6446) (end 128.6511 113.6446) (width 0.4064) (layer Top) (net 5) (tstamp 2071950))
  (segment (start 128.6511 113.6446) (end 131.1911 116.1846) (width 0.4064) (layer Top) (net 5) (tstamp 20719E0))
  (segment (start 131.1911 116.1846) (end 134.8741 116.1846) (width 0.4064) (layer Top) (net 5) (tstamp 2071A70))
  (segment (start 123.4341 116.6716) (end 123.4341 119.9846) (width 0.4064) (layer Top) (net 6) (tstamp 2070F30))
  (segment (start 123.4341 119.9846) (end 123.8251 120.3756) (width 0.4064) (layer Top) (net 6) (tstamp 2070FC0))
  (segment (start 123.8251 120.3756) (end 130.9371 120.3756) (width 0.4064) (layer Top) (net 6) (tstamp 2071050))
  (segment (start 130.9371 120.3756) (end 132.5881 118.7246) (width 0.4064) (layer Top) (net 6) (tstamp 20710E0))
  (segment (start 132.5881 118.7246) (end 134.8741 118.7246) (width 0.4064) (layer Top) (net 6) (tstamp 2071170))
  (segment (start 122.1641 116.6716) (end 122.1641 120.2386) (width 0.4064) (layer Top) (net 7) (tstamp 2070B40))
  (segment (start 122.1641 120.2386) (end 123.3171 121.3916) (width 0.4064) (layer Top) (net 7) (tstamp 2070BD0))
  (segment (start 134.7471 121.3916) (end 134.8741 121.2646) (width 0.4064) (layer Top) (net 7))
  (segment (start 123.3171 121.3916) (end 134.7471 121.3916) (width 0.4064) (layer Top) (net 7))
  (segment (start 120.9041 116.6716) (end 117.4541 116.6716) (width 0.4064) (layer Top) (net 8) (tstamp 20706C0))
  (segment (start 117.4541 116.6716) (end 115.8241 115.0416) (width 0.4064) (layer Top) (net 8) (tstamp 2070750))
  (segment (start 117.3481 120.7566) (end 117.3481 116.7776) (width 0.4064) (layer Top) (net 8) (tstamp 2070900))
  (segment (start 120.0151 102.7226) (end 117.4751 102.7226) (width 0.4064) (layer Top) (net 9) (tstamp 204BF00))

)
