(module 05P (layer F.Cu) (tedit 0)
  (descr "<b>AMP QUICK CONNECTOR</b>")
  (fp_text reference M05 (at -6.096 -2.9464) (layer F.SilkS)
    (effects (font (size 1.2065 1.2065) (thickness 0.127)) (justify left bottom))
  )
  (fp_text value "" (at -6.096 3.8354) (layer F.Fab)
    (effects (font (size 1.2065 1.2065) (thickness 0.127)) (justify left bottom))
  )
  (fp_line (start -4.191 -1.778) (end -4.064 -1.651) (layer F.SilkS) (width 0.1524))
  (fp_line (start -4.064 -1.651) (end -3.81 -1.397) (layer F.SilkS) (width 0.1524))
  (fp_line (start -3.81 -1.397) (end -3.556 -1.651) (layer F.SilkS) (width 0.1524))
  (fp_line (start -3.556 -1.651) (end -3.429 -1.778) (layer F.SilkS) (width 0.1524))
  (fp_line (start -4.064 2.159) (end -4.064 2.286) (layer F.SilkS) (width 0.1524))
  (fp_line (start -4.064 2.286) (end -6.096 2.286) (layer F.SilkS) (width 0.1524))
  (fp_line (start -3.556 2.159) (end -4.064 2.159) (layer F.SilkS) (width 0.1524))
  (fp_line (start -3.556 2.159) (end -3.556 2.286) (layer F.SilkS) (width 0.1524))
  (fp_line (start -6.096 -2.54) (end -6.096 -1.778) (layer F.SilkS) (width 0.1524))
  (fp_line (start -6.096 -1.778) (end -6.096 1.524) (layer F.SilkS) (width 0.1524))
  (fp_line (start -6.096 1.778) (end -6.096 2.286) (layer F.SilkS) (width 0.1524))
  (fp_line (start -6.096 1.778) (end -5.715 1.778) (layer F.SilkS) (width 0.1524))
  (fp_line (start -4.445 1.778) (end -4.445 1.524) (layer F.SilkS) (width 0.1524))
  (fp_line (start -5.715 1.778) (end -5.715 1.524) (layer F.SilkS) (width 0.1524))
  (fp_line (start -5.715 1.27) (end -4.445 1.27) (layer F.SilkS) (width 0.1524))
  (fp_line (start -4.445 1.524) (end -4.445 1.27) (layer F.SilkS) (width 0.1524))
  (fp_line (start -3.175 1.778) (end -3.175 1.524) (layer F.SilkS) (width 0.1524))
  (fp_line (start -3.175 1.524) (end -3.175 1.27) (layer F.SilkS) (width 0.1524))
  (fp_line (start -4.445 1.524) (end -4.064 1.524) (layer F.SilkS) (width 0.1524))
  (fp_line (start -4.064 1.524) (end -3.556 1.524) (layer F.SilkS) (width 0.1524))
  (fp_line (start -3.556 1.524) (end -3.175 1.524) (layer F.SilkS) (width 0.1524))
  (fp_line (start -5.715 1.524) (end -6.096 1.524) (layer F.SilkS) (width 0.1524))
  (fp_line (start -5.715 1.524) (end -5.715 1.27) (layer F.SilkS) (width 0.1524))
  (fp_line (start -6.096 1.524) (end -6.096 1.778) (layer F.SilkS) (width 0.1524))
  (fp_line (start -6.096 -2.54) (end -5.334 -2.54) (layer F.SilkS) (width 0.1524))
  (fp_line (start -5.334 -2.54) (end -5.334 -2.667) (layer F.SilkS) (width 0.1524))
  (fp_line (start -4.826 -2.54) (end -4.826 -2.667) (layer F.SilkS) (width 0.1524))
  (fp_line (start -4.826 -2.667) (end -5.334 -2.667) (layer F.SilkS) (width 0.1524))
  (fp_line (start -2.794 -2.54) (end -2.794 -2.667) (layer F.SilkS) (width 0.1524))
  (fp_line (start -2.286 -2.54) (end -2.286 -2.667) (layer F.SilkS) (width 0.1524))
  (fp_line (start -3.556 -2.413) (end -3.556 -2.54) (layer F.SilkS) (width 0.1524))
  (fp_line (start -4.064 -2.413) (end -4.064 -2.54) (layer F.SilkS) (width 0.1524))
  (fp_line (start -1.016 2.159) (end -1.524 2.159) (layer F.SilkS) (width 0.1524))
  (fp_line (start -1.016 2.159) (end -1.016 2.286) (layer F.SilkS) (width 0.1524))
  (fp_line (start 1.016 2.286) (end -1.016 2.286) (layer F.SilkS) (width 0.1524))
  (fp_line (start 1.016 -1.778) (end 1.016 1.524) (layer F.SilkS) (width 0.1524))
  (fp_line (start 0.635 1.778) (end 0.635 1.524) (layer F.SilkS) (width 0.1524))
  (fp_line (start -0.635 1.27) (end 0.635 1.27) (layer F.SilkS) (width 0.1524))
  (fp_line (start -1.905 1.778) (end -1.905 1.524) (layer F.SilkS) (width 0.1524))
  (fp_line (start -1.905 1.524) (end -1.905 1.27) (layer F.SilkS) (width 0.1524))
  (fp_line (start -0.635 1.778) (end -0.635 1.524) (layer F.SilkS) (width 0.1524))
  (fp_line (start -0.635 1.524) (end -0.635 1.27) (layer F.SilkS) (width 0.1524))
  (fp_line (start -1.905 1.524) (end -1.524 1.524) (layer F.SilkS) (width 0.1524))
  (fp_line (start -1.524 1.524) (end -1.016 1.524) (layer F.SilkS) (width 0.1524))
  (fp_line (start -1.016 1.524) (end -0.635 1.524) (layer F.SilkS) (width 0.1524))
  (fp_line (start 0.635 1.524) (end 1.016 1.524) (layer F.SilkS) (width 0.1524))
  (fp_line (start 0.635 1.524) (end 0.635 1.27) (layer F.SilkS) (width 0.1524))
  (fp_line (start -0.254 -2.54) (end -0.254 -2.667) (layer F.SilkS) (width 0.1524))
  (fp_line (start 0.254 -2.54) (end 1.016 -2.54) (layer F.SilkS) (width 0.1524))
  (fp_line (start 0.254 -2.54) (end 0.254 -2.667) (layer F.SilkS) (width 0.1524))
  (fp_line (start 0.254 -2.667) (end -0.254 -2.667) (layer F.SilkS) (width 0.1524))
  (fp_line (start -1.016 -2.413) (end -1.016 -2.54) (layer F.SilkS) (width 0.1524))
  (fp_line (start -1.016 -2.54) (end -0.254 -2.54) (layer F.SilkS) (width 0.1524))
  (fp_line (start -1.016 -2.413) (end -1.524 -2.413) (layer F.SilkS) (width 0.1524))
  (fp_line (start -1.524 -2.413) (end -1.524 -2.54) (layer F.SilkS) (width 0.1524))
  (fp_line (start -2.286 -2.54) (end -1.524 -2.54) (layer F.SilkS) (width 0.1524))
  (fp_line (start -2.286 -2.667) (end -2.794 -2.667) (layer F.SilkS) (width 0.1524))
  (fp_line (start -3.556 -2.54) (end -2.794 -2.54) (layer F.SilkS) (width 0.1524))
  (fp_line (start -4.064 -2.413) (end -3.556 -2.413) (layer F.SilkS) (width 0.1524))
  (fp_line (start -4.064 -2.54) (end -4.826 -2.54) (layer F.SilkS) (width 0.1524))
  (fp_line (start -4.191 -1.778) (end -6.096 -1.778) (layer F.SilkS) (width 0.1524))
  (fp_line (start -3.429 -1.778) (end -1.524 -1.778) (layer F.SilkS) (width 0.1524))
  (fp_line (start -1.524 -1.778) (end -1.016 -1.778) (layer F.SilkS) (width 0.1524))
  (fp_line (start -3.556 -1.651) (end -3.556 1.524) (layer F.SilkS) (width 0.1524))
  (fp_line (start -4.064 -1.651) (end -4.064 1.524) (layer F.SilkS) (width 0.1524))
  (fp_line (start -1.524 -1.778) (end -1.524 1.524) (layer F.SilkS) (width 0.1524))
  (fp_line (start -1.016 -1.778) (end -1.016 1.524) (layer F.SilkS) (width 0.1524))
  (fp_line (start -3.175 1.27) (end -1.905 1.27) (layer F.SilkS) (width 0.1524))
  (fp_line (start -3.175 1.778) (end -4.445 1.778) (layer F.SilkS) (width 0.1524))
  (fp_line (start -3.556 2.286) (end -1.524 2.286) (layer F.SilkS) (width 0.1524))
  (fp_line (start -1.905 1.778) (end -0.635 1.778) (layer F.SilkS) (width 0.1524))
  (fp_line (start -1.524 2.159) (end -1.524 2.286) (layer F.SilkS) (width 0.1524))
  (fp_line (start 1.524 -1.778) (end 1.524 1.524) (layer F.SilkS) (width 0.1524))
  (fp_line (start 1.905 1.778) (end 1.905 1.524) (layer F.SilkS) (width 0.1524))
  (fp_line (start 1.905 1.524) (end 1.524 1.524) (layer F.SilkS) (width 0.1524))
  (fp_line (start 1.905 1.524) (end 1.905 1.27) (layer F.SilkS) (width 0.1524))
  (fp_line (start 2.286 -2.54) (end 2.286 -2.667) (layer F.SilkS) (width 0.1524))
  (fp_line (start 2.794 -2.54) (end 2.794 -2.667) (layer F.SilkS) (width 0.1524))
  (fp_line (start 3.81 -1.397) (end 4.064 -1.651) (layer F.SilkS) (width 0.1524))
  (fp_line (start 4.064 -1.651) (end 4.191 -1.778) (layer F.SilkS) (width 0.1524))
  (fp_line (start 4.064 2.159) (end 3.556 2.159) (layer F.SilkS) (width 0.1524))
  (fp_line (start 4.064 2.159) (end 4.064 2.286) (layer F.SilkS) (width 0.1524))
  (fp_line (start 6.096 2.286) (end 4.064 2.286) (layer F.SilkS) (width 0.1524))
  (fp_line (start 4.191 -1.778) (end 6.096 -1.778) (layer F.SilkS) (width 0.1524))
  (fp_line (start 6.096 -1.778) (end 6.096 -2.54) (layer F.SilkS) (width 0.1524))
  (fp_line (start 6.096 1.778) (end 6.096 2.286) (layer F.SilkS) (width 0.1524))
  (fp_line (start 6.096 1.778) (end 5.715 1.778) (layer F.SilkS) (width 0.1524))
  (fp_line (start 6.096 -1.778) (end 6.096 1.524) (layer F.SilkS) (width 0.1524))
  (fp_line (start 5.715 1.778) (end 5.715 1.524) (layer F.SilkS) (width 0.1524))
  (fp_line (start 4.445 1.27) (end 5.715 1.27) (layer F.SilkS) (width 0.1524))
  (fp_line (start 3.175 1.778) (end 3.175 1.524) (layer F.SilkS) (width 0.1524))
  (fp_line (start 3.175 1.524) (end 3.175 1.27) (layer F.SilkS) (width 0.1524))
  (fp_line (start 4.445 1.778) (end 4.445 1.524) (layer F.SilkS) (width 0.1524))
  (fp_line (start 4.445 1.524) (end 4.445 1.27) (layer F.SilkS) (width 0.1524))
  (fp_line (start 3.175 1.524) (end 3.556 1.524) (layer F.SilkS) (width 0.1524))
  (fp_line (start 3.556 1.524) (end 4.064 1.524) (layer F.SilkS) (width 0.1524))
  (fp_line (start 4.064 1.524) (end 4.445 1.524) (layer F.SilkS) (width 0.1524))
  (fp_line (start 5.715 1.524) (end 6.096 1.524) (layer F.SilkS) (width 0.1524))
  (fp_line (start 5.715 1.524) (end 5.715 1.27) (layer F.SilkS) (width 0.1524))
  (fp_line (start 6.096 1.524) (end 6.096 1.778) (layer F.SilkS) (width 0.1524))
  (fp_line (start 4.826 -2.54) (end 4.826 -2.667) (layer F.SilkS) (width 0.1524))
  (fp_line (start 5.334 -2.54) (end 6.096 -2.54) (layer F.SilkS) (width 0.1524))
  (fp_line (start 5.334 -2.54) (end 5.334 -2.667) (layer F.SilkS) (width 0.1524))
  (fp_line (start 5.334 -2.667) (end 4.826 -2.667) (layer F.SilkS) (width 0.1524))
  (fp_line (start 4.064 -2.413) (end 4.064 -2.54) (layer F.SilkS) (width 0.1524))
  (fp_line (start 4.064 -2.54) (end 4.826 -2.54) (layer F.SilkS) (width 0.1524))
  (fp_line (start 4.064 -2.413) (end 3.556 -2.413) (layer F.SilkS) (width 0.1524))
  (fp_line (start 3.556 -2.413) (end 3.556 -2.54) (layer F.SilkS) (width 0.1524))
  (fp_line (start 3.429 -1.778) (end 3.556 -1.651) (layer F.SilkS) (width 0.1524))
  (fp_line (start 3.556 -1.651) (end 3.81 -1.397) (layer F.SilkS) (width 0.1524))
  (fp_line (start 2.794 -2.54) (end 3.556 -2.54) (layer F.SilkS) (width 0.1524))
  (fp_line (start 2.794 -2.667) (end 2.286 -2.667) (layer F.SilkS) (width 0.1524))
  (fp_line (start 1.524 -2.54) (end 2.286 -2.54) (layer F.SilkS) (width 0.1524))
  (fp_line (start 3.556 -1.651) (end 3.556 1.524) (layer F.SilkS) (width 0.1524))
  (fp_line (start 4.064 -1.651) (end 4.064 1.524) (layer F.SilkS) (width 0.1524))
  (fp_line (start 1.524 2.286) (end 3.556 2.286) (layer F.SilkS) (width 0.1524))
  (fp_line (start 3.175 1.778) (end 4.445 1.778) (layer F.SilkS) (width 0.1524))
  (fp_line (start 3.556 2.159) (end 3.556 2.286) (layer F.SilkS) (width 0.1524))
  (fp_line (start -1.016 -1.778) (end 1.016 -1.778) (layer F.SilkS) (width 0.1524))
  (fp_line (start 1.524 -1.778) (end 3.429 -1.778) (layer F.SilkS) (width 0.1524))
  (fp_line (start 1.016 2.159) (end 1.016 2.286) (layer F.SilkS) (width 0.1524))
  (fp_line (start 1.524 2.159) (end 1.524 2.286) (layer F.SilkS) (width 0.1524))
  (fp_line (start 1.524 2.159) (end 1.016 2.159) (layer F.SilkS) (width 0.1524))
  (fp_line (start 1.905 1.778) (end 0.635 1.778) (layer F.SilkS) (width 0.1524))
  (fp_line (start 1.524 1.524) (end 1.016 1.524) (layer F.SilkS) (width 0.1524))
  (fp_line (start 1.524 -1.778) (end 1.016 -1.778) (layer F.SilkS) (width 0.1524))
  (fp_line (start 1.524 -2.413) (end 1.016 -2.413) (layer F.SilkS) (width 0.1524))
  (fp_line (start 1.016 -2.54) (end 1.016 -2.413) (layer F.SilkS) (width 0.1524))
  (fp_line (start 1.524 -2.54) (end 1.524 -2.413) (layer F.SilkS) (width 0.1524))
  (fp_line (start 1.905 1.27) (end 3.175 1.27) (layer F.SilkS) (width 0.1524))
  (fp_text user 1 (at -4.572 -0.9398 90) (layer F.SilkS)
    (effects (font (size 0.94107 0.94107) (thickness 0.118872)) (justify left bottom))
  )
  (fp_poly (pts (xy -5.4102 0.3302) (xy -4.7498 0.3302) (xy -4.7498 -0.3302) (xy -5.4102 -0.3302)) (layer F.Fab) (width 0))
  (fp_poly (pts (xy -2.8702 0.3302) (xy -2.2098 0.3302) (xy -2.2098 -0.3302) (xy -2.8702 -0.3302)) (layer F.Fab) (width 0))
  (fp_poly (pts (xy -0.3302 0.3302) (xy 0.3302 0.3302) (xy 0.3302 -0.3302) (xy -0.3302 -0.3302)) (layer F.Fab) (width 0))
  (fp_poly (pts (xy 2.2098 0.3302) (xy 2.8702 0.3302) (xy 2.8702 -0.3302) (xy 2.2098 -0.3302)) (layer F.Fab) (width 0))
  (fp_poly (pts (xy 4.7498 0.3302) (xy 5.4102 0.3302) (xy 5.4102 -0.3302) (xy 4.7498 -0.3302)) (layer F.Fab) (width 0))
  (pad 1 thru_hole oval (at -5.08 0 90) (size 2.8448 1.4224) (drill 0.9144) (layers *.Cu *.Mask)
    (solder_mask_margin 0.1016))
  (pad 2 thru_hole oval (at -2.54 0 90) (size 2.8448 1.4224) (drill 0.9144) (layers *.Cu *.Mask)
    (solder_mask_margin 0.1016))
  (pad 3 thru_hole oval (at 0 0 90) (size 2.8448 1.4224) (drill 0.9144) (layers *.Cu *.Mask)
    (solder_mask_margin 0.1016))
  (pad 4 thru_hole oval (at 2.54 0 90) (size 2.8448 1.4224) (drill 0.9144) (layers *.Cu *.Mask)
    (solder_mask_margin 0.1016))
  (pad 5 thru_hole oval (at 5.08 0 90) (size 2.8448 1.4224) (drill 0.9144) (layers *.Cu *.Mask)
    (solder_mask_margin 0.1016))
)
