(module 1206 (layer F.Cu) (tedit 0)
  (fp_text reference C2 (at -1.27 -1.143) (layer F.SilkS)
    (effects (font (size 0.38608 0.38608) (thickness 0.032512)) (justify left bottom))
  )
  (fp_text value 10uF (at -1.397 1.524) (layer F.Fab)
    (effects (font (size 0.38608 0.38608) (thickness 0.032512)) (justify left bottom))
  )
  (fp_line (start -2.473 -0.983) (end 2.473 -0.983) (layer Dwgs.User) (width 0.0508))
  (fp_line (start 2.473 0.983) (end -2.473 0.983) (layer Dwgs.User) (width 0.0508))
  (fp_line (start -2.473 0.983) (end -2.473 -0.983) (layer Dwgs.User) (width 0.0508))
  (fp_line (start 2.473 -0.983) (end 2.473 0.983) (layer Dwgs.User) (width 0.0508))
  (fp_line (start -0.965 -0.787) (end 0.965 -0.787) (layer F.Fab) (width 0.1016))
  (fp_line (start -0.965 0.787) (end 0.965 0.787) (layer F.Fab) (width 0.1016))
  (fp_poly (pts (xy -1.7018 0.8509) (xy -0.9517 0.8509) (xy -0.9517 -0.8491) (xy -1.7018 -0.8491)) (layer F.Fab) (width 0))
  (fp_poly (pts (xy 0.9517 0.8491) (xy 1.7018 0.8491) (xy 1.7018 -0.8509) (xy 0.9517 -0.8509)) (layer F.Fab) (width 0))
  (fp_poly (pts (xy -0.1999 0.4001) (xy 0.1999 0.4001) (xy 0.1999 -0.4001) (xy -0.1999 -0.4001)) (layer F.Adhes) (width 0))
  (pad 1 smd rect (at -1.4 0) (size 1.6 1.8) (layers F.Cu F.Paste F.Mask)
    (solder_mask_margin 0.1016))
  (pad 2 smd rect (at 1.4 0) (size 1.6 1.8) (layers F.Cu F.Paste F.Mask)
    (solder_mask_margin 0.1016))
)
