(module 1X01_LONGPAD (layer F.Cu) (tedit 0)
  (fp_text reference RST (at -1.3462 -1.8288) (layer F.SilkS)
    (effects (font (size 1.2065 1.2065) (thickness 0.127)) (justify left bottom))
  )
  (fp_text value M01 (at -1.27 3.175) (layer F.Fab)
    (effects (font (size 1.2065 1.2065) (thickness 0.1016)) (justify left bottom))
  )
  (fp_line (start -1.27 -0.635) (end -1.27 0.635) (layer F.SilkS) (width 0.2032))
  (fp_line (start 1.27 -0.635) (end 1.27 0.635) (layer F.SilkS) (width 0.2032))
  (fp_poly (pts (xy -0.254 0.254) (xy 0.254 0.254) (xy 0.254 -0.254) (xy -0.254 -0.254)) (layer F.Fab) (width 0))
  (pad 1 thru_hole oval (at 0 0 90) (size 3.7592 1.8796) (drill 1.016) (layers *.Cu *.Mask)
    (solder_mask_margin 0.1016))
)
