(module SOIC8 (layer F.Cu) (tedit 0)
  (descr "<B>Wide Plastic Gull Wing Small Outline Package</B>")
  (fp_text reference 001 (at -2.8575 2.159 90) (layer F.SilkS)
    (effects (font (size 1.2065 1.2065) (thickness 0.127)) (justify left bottom))
  )
  (fp_text value ATTINY45SI (at 4.064 2.159 90) (layer F.Fab)
    (effects (font (size 1.2065 1.2065) (thickness 0.127)) (justify left bottom))
  )
  (fp_arc (start -2.35 -2.25) (end -2.6 -2.25) (angle 90) (layer F.SilkS) (width 0.1524))
  (fp_arc (start 2.35 -2.25) (end 2.35 -2.5) (angle 90) (layer F.SilkS) (width 0.1524))
  (fp_arc (start 2.35 2.25) (end 2.35 2.5) (angle -90) (layer F.SilkS) (width 0.1524))
  (fp_arc (start -2.35 2.25) (end -2.6 2.25) (angle -90) (layer F.SilkS) (width 0.1524))
  (fp_line (start 2.36 2.5) (end -2.34 2.5) (layer F.Fab) (width 0.1524))
  (fp_line (start -2.34 -2.5) (end 2.36 -2.5) (layer F.Fab) (width 0.1524))
  (fp_line (start -2.21 -2.5) (end -2.34 -2.5) (layer F.SilkS) (width 0.1524))
  (fp_line (start -1.59 -2.5) (end -0.95 -2.5) (layer F.SilkS) (width 0.1524))
  (fp_line (start -0.32 -2.5) (end 0.32 -2.5) (layer F.SilkS) (width 0.1524))
  (fp_line (start 0.95 -2.5) (end 1.59 -2.5) (layer F.SilkS) (width 0.1524))
  (fp_line (start 2.21 -2.5) (end 2.36 -2.5) (layer F.SilkS) (width 0.1524))
  (fp_line (start 2.2 2.5) (end 2.33 2.5) (layer F.SilkS) (width 0.1524))
  (fp_line (start 1.59 2.5) (end 0.94 2.5) (layer F.SilkS) (width 0.1524))
  (fp_line (start 0.32 2.5) (end -0.33 2.5) (layer F.SilkS) (width 0.1524))
  (fp_line (start -0.95 2.5) (end -1.59 2.5) (layer F.SilkS) (width 0.1524))
  (fp_line (start -2.21 2.5) (end -2.34 2.5) (layer F.SilkS) (width 0.1524))
  (fp_line (start -2.6 -2.25) (end -2.6 2.24) (layer F.SilkS) (width 0.1524))
  (fp_line (start 2.6 2.25) (end 2.6 -2.25) (layer F.SilkS) (width 0.1524))
  (fp_circle (center -1.42 1.115) (end -0.92 1.115) (layer F.SilkS) (width 0.0508))
  (fp_poly (pts (xy -2.08 -2.5) (xy -1.73 -2.5) (xy -1.73 -3.4) (xy -2.08 -3.4)) (layer F.Fab) (width 0))
  (fp_poly (pts (xy -0.81 -2.5) (xy -0.46 -2.5) (xy -0.46 -3.4) (xy -0.81 -3.4)) (layer F.Fab) (width 0))
  (fp_poly (pts (xy 0.46 -2.5) (xy 0.81 -2.5) (xy 0.81 -3.4) (xy 0.46 -3.4)) (layer F.Fab) (width 0))
  (fp_poly (pts (xy 1.73 -2.5) (xy 2.08 -2.5) (xy 2.08 -3.4) (xy 1.73 -3.4)) (layer F.Fab) (width 0))
  (fp_poly (pts (xy 1.72 3.4) (xy 2.07 3.4) (xy 2.07 2.5) (xy 1.72 2.5)) (layer F.Fab) (width 0))
  (fp_poly (pts (xy 0.45 3.4) (xy 0.8 3.4) (xy 0.8 2.5) (xy 0.45 2.5)) (layer F.Fab) (width 0))
  (fp_poly (pts (xy -0.82 3.4) (xy -0.47 3.4) (xy -0.47 2.5) (xy -0.82 2.5)) (layer F.Fab) (width 0))
  (fp_poly (pts (xy -2.08 3.4) (xy -1.73 3.4) (xy -1.73 2.5) (xy -2.08 2.5)) (layer F.Fab) (width 0))
  (pad 1 smd rect (at -1.905 3.154) (size 0.5 2.2) (layers F.Cu F.Paste F.Mask)
    (solder_mask_margin 0.1016))
  (pad 2 smd rect (at -0.645 3.154) (size 0.5 2.2) (layers F.Cu F.Paste F.Mask)
    (solder_mask_margin 0.1016))
  (pad 3 smd rect (at 0.625 3.154) (size 0.5 2.2) (layers F.Cu F.Paste F.Mask)
    (solder_mask_margin 0.1016))
  (pad 4 smd rect (at 1.895 3.154) (size 0.5 2.2) (layers F.Cu F.Paste F.Mask)
    (solder_mask_margin 0.1016))
  (pad 8 smd rect (at -1.905 -3.154) (size 0.5 2.2) (layers F.Cu F.Paste F.Mask)
    (solder_mask_margin 0.1016))
  (pad 7 smd rect (at -0.635 -3.154) (size 0.5 2.2) (layers F.Cu F.Paste F.Mask)
    (solder_mask_margin 0.1016))
  (pad 6 smd rect (at 0.635 -3.154) (size 0.5 2.2) (layers F.Cu F.Paste F.Mask)
    (solder_mask_margin 0.1016))
  (pad 5 smd rect (at 1.905 -3.154) (size 0.5 2.2) (layers F.Cu F.Paste F.Mask)
    (solder_mask_margin 0.1016))
)
